%!PS-Adobe-2.0 EPSF-2.0
%%BoundingBox:  0 0 567 543
%%Title: dataset/plots/variables_id_c1.eps: Input variables (training sample)
%%Creator: ROOT Version 6.08/02
%%CreationDate: Wed Jul 18 11:09:34 2018
%%DocumentNeededResources: ProcSet (FontSetInit)
%%EndComments
%%BeginProlog
80 dict begin
/s {stroke} def /l {lineto} def /m {moveto} def /t {translate} def
/r {rotate} def /rl {roll}  def /R {repeat} def
/d {rlineto} def /rm {rmoveto} def /gr {grestore} def /f {eofill} def
/c {setrgbcolor} def /black {0 setgray} def /sd {setdash} def
/cl {closepath} def /sf {scalefont setfont} def /lw {setlinewidth} def
/box {m dup 0 exch d exch 0 d 0 exch neg d cl} def
/NC{systemdict begin initclip end}def/C{NC box clip newpath}def
/bl {box s} def /bf {gsave box gsave f grestore 1 lw [] 0 sd s grestore} def /Y { 0 exch d} def /X { 0 d} def 
/K {{pop pop 0 moveto} exch kshow} bind def
/ita {/ang 15 def gsave [1 0 ang dup sin exch cos div 1 0 0] concat} def 
/mp {newpath /y exch def /x exch def} def
/side {[w .77 mul w .23 mul] .385 w mul sd w 0 l currentpoint t -144 r} def
/mr {mp x y w2 0 360 arc} def /m24 {mr s} def /m20 {mr f} def
/mb {mp x y w2 add m w2 neg 0 d 0 w neg d w 0 d 0 w d cl} def
/mt {mp x y w2 add m w2 neg w neg d w 0 d cl} def
/m21 {mb f} def /m25 {mb s} def /m22 {mt f} def /m26{mt s} def
/m23 {mp x y w2 sub m w2 w d w neg 0 d cl f} def
/m27 {mp x y w2 add m w3 neg w2 neg d w3 w2 neg d w3 w2 d cl s} def
/m28 {mp x w2 sub y w2 sub w3 add m w3 0 d  0 w3 neg d w3 0 d 0 w3 d w3 0 d  0 w3 d w3 neg 0 d 0 w3 d w3 neg 0 d 0 w3 neg d w3 neg 0 d cl s } def
/m29 {mp gsave x w2 sub y w2 add w3 sub m currentpoint t 4 {side} repeat cl fill gr} def
/m30 {mp gsave x w2 sub y w2 add w3 sub m currentpoint t 4 {side} repeat cl s gr} def
/m31 {mp x y w2 sub m 0 w d x w2 sub y m w 0 d x w2 sub y w2 add m w w neg d x w2 sub y w2 sub m w w d s} def
/m32 {mp x y w2 sub m w2 w d w neg 0 d cl s} def
/m33 {mp x y w2 add m w3 neg w2 neg d w3 w2 neg d w3 w2 d cl f} def
/m34 {mp x w2 sub y w2 sub w3 add m w3 0 d  0 w3 neg d w3 0 d 0 w3 d w3 0 d  0 w3 d w3 neg 0 d 0 w3 d w3 neg 0 d 0 w3 neg d w3 neg 0 d cl f } def
/m2 {mp x y w2 sub m 0 w d x w2 sub y m w 0 d s} def
/m5 {mp x w2 sub y w2 sub m w w d x w2 sub y w2 add m w w neg d s} def
%%IncludeResource: ProcSet (FontSetInit)
%%IncludeResource: font Times-Roman
%%IncludeResource: font Times-Italic
%%IncludeResource: font Times-Bold
%%IncludeResource: font Times-BoldItalic
%%IncludeResource: font Helvetica
%%IncludeResource: font Helvetica-Oblique
%%IncludeResource: font Helvetica-Bold
%%IncludeResource: font Helvetica-BoldOblique
%%IncludeResource: font Courier
%%IncludeResource: font Courier-Oblique
%%IncludeResource: font Courier-Bold
%%IncludeResource: font Courier-BoldOblique
%%IncludeResource: font Symbol
%%IncludeResource: font ZapfDingbats
/reEncode {exch findfont dup length dict begin {1 index /FID eq  {pop pop} {def} ifelse } forall /Encoding exch def currentdict end dup /FontName get exch definefont pop } def [/Times-Bold /Times-Italic /Times-BoldItalic /Helvetica /Helvetica-Oblique
 /Helvetica-Bold /Helvetica-BoldOblique /Courier /Courier-Oblique /Courier-Bold /Courier-BoldOblique /Times-Roman /AvantGarde-Book /AvantGarde-BookOblique /AvantGarde-Demi /AvantGarde-DemiOblique /Bookman-Demi /Bookman-DemiItalic /Bookman-Light
 /Bookman-LightItalic /Helvetica-Narrow /Helvetica-Narrow-Bold /Helvetica-Narrow-BoldOblique /Helvetica-Narrow-Oblique /NewCenturySchlbk-Roman /NewCenturySchlbk-Bold /NewCenturySchlbk-BoldItalic /NewCenturySchlbk-Italic /Palatino-Bold
 /Palatino-BoldItalic /Palatino-Italic /Palatino-Roman ] {ISOLatin1Encoding reEncode } forall
%%EndProlog
%%BeginSetup
%%EndSetup
newpath  gsave  .25 .25 scale  gsave  0 0 t 0.490196 0.545098 0.615686 c[  ] 0 sd 3 lw 1 1 1 c 2268 2173 0 0 bf 0.490196 0.545098 0.615686 c 1 1 1 c 1088 1043 23 1108 bf black 1 1 1 c 838 789 208 1258 bf black 838 789 208 1258 bl 1 1 1 c 838 789 208
 1258 bf black 838 789 208 1258 bl 0 0 0.933333 c 6 lw 0.49 0.6 0.82 c black 3 lw 0.49 0.6 0.82 c 208 1258 m 167 X 6 Y 21 X 12 Y 63 X 18 Y 21 X 88 Y 21 X -18 Y 21 X 89 Y 21 X 64 Y 21 X 6 Y 21 X 136 Y 21 X 82 Y 21 X 47 Y 21 X -82 Y 21 X 159 Y 21 X -94
 Y 21 X 29 Y 21 X -182 Y 21 X -83 Y 20 X -35 Y 21 X -59 Y 21 X -71 Y 21 X -29 Y 21 X -53 Y 21 X -12 Y 21 X -12 Y 21 X 6 Y 21 X -12 Y 21 X 6 Y 21 X -6 Y 63 X f 6 lw 0 0 0.933333 c 0.49 0.6 0.82 c 0 0 0.933333 c 208 1258 m 167 X 6 Y 21 X 12 Y 63 X 18 Y
 21 X 88 Y 21 X -18 Y 21 X 89 Y 21 X 64 Y 21 X 6 Y 21 X 136 Y 21 X 82 Y 21 X 47 Y 21 X -82 Y 21 X 159 Y 21 X -94 Y 21 X 29 Y 21 X -182 Y 21 X -83 Y 20 X -35 Y 21 X -59 Y 21 X -71 Y 21 X -29 Y 21 X -53 Y 21 X -12 Y 21 X -12 Y 21 X 6 Y 21 X -12 Y 21 X
 6 Y 21 X -6 Y 63 X s black 3 lw 208 1258 m 838 X s
 gsave  1088 1043 23 1108 C 879.783 1133.86 t 0 r /Helvetica findfont 53.0981 sf 0 0 m (myvar1) show NC gr  215 1282 m -24 Y s 242 1270 m -12 Y s 268 1270 m -12 Y s 295 1270 m -12 Y s 321 1282 m -24 Y s 348 1270 m -12 Y s 375 1270 m -12 Y s 401 1270
 m -12 Y s 428 1282 m -24 Y s 454 1270 m -12 Y s 481 1270 m -12 Y s 507 1270 m -12 Y s 534 1282 m -24 Y s 560 1270 m -12 Y s 587 1270 m -12 Y s 613 1270 m -12 Y s 640 1282 m -24 Y s 666 1270 m -12 Y s 693 1270 m -12 Y s 719 1270 m -12 Y s 746 1282 m
 -24 Y s 772 1270 m -12 Y s 799 1270 m -12 Y s 825 1270 m -12 Y s 852 1282 m -24 Y s 878 1270 m -12 Y s 905 1270 m -12 Y s 932 1270 m -12 Y s 958 1282 m -24 Y s 215 1282 m -24 Y s 958 1282 m -24 Y s 985 1270 m -12 Y s 1011 1270 m -12 Y s 1038 1270 m
 -12 Y s
 gsave  1088 1043 23 1108 C 208.569 1205.91 t 0 r /Helvetica findfont 45.5126 sf 0 0 m (8) show NC gr 
 gsave  1088 1043 23 1108 C 185.816 1205.91 t 0 r /Symbol findfont 45.5126 sf 0 0 m (-) show NC gr 
 gsave  1088 1043 23 1108 C 314.75 1205.91 t 0 r /Helvetica findfont 45.5126 sf 0 0 m (6) show NC gr 
 gsave  1088 1043 23 1108 C 291.997 1205.91 t 0 r /Symbol findfont 45.5126 sf 0 0 m (-) show NC gr 
 gsave  1088 1043 23 1108 C 420.931 1205.91 t 0 r /Helvetica findfont 45.5126 sf 0 0 m (4) show NC gr 
 gsave  1088 1043 23 1108 C 398.178 1205.91 t 0 r /Symbol findfont 45.5126 sf 0 0 m (-) show NC gr 
 gsave  1088 1043 23 1108 C 527.111 1205.91 t 0 r /Helvetica findfont 45.5126 sf 0 0 m (2) show NC gr 
 gsave  1088 1043 23 1108 C 504.358 1205.91 t 0 r /Symbol findfont 45.5126 sf 0 0 m (-) show NC gr 
 gsave  1088 1043 23 1108 C 621.916 1205.91 t 0 r /Helvetica findfont 45.5126 sf 0 0 m (0) show NC gr 
 gsave  1088 1043 23 1108 C 728.096 1205.91 t 0 r /Helvetica findfont 45.5126 sf 0 0 m (2) show NC gr 
 gsave  1088 1043 23 1108 C 834.277 1205.91 t 0 r /Helvetica findfont 45.5126 sf 0 0 m (4) show NC gr 
 gsave  1088 1043 23 1108 C 940.458 1205.91 t 0 r /Helvetica findfont 45.5126 sf 0 0 m (6) show NC gr  208 2047 m 838 X s 215 2023 m 24 Y s 242 2035 m 12 Y s 268 2035 m 12 Y s 295 2035 m 12 Y s 321 2023 m 24 Y s 348 2035 m 12 Y s 375 2035 m 12 Y s
 401 2035 m 12 Y s 428 2023 m 24 Y s 454 2035 m 12 Y s 481 2035 m 12 Y s 507 2035 m 12 Y s 534 2023 m 24 Y s 560 2035 m 12 Y s 587 2035 m 12 Y s 613 2035 m 12 Y s 640 2023 m 24 Y s 666 2035 m 12 Y s 693 2035 m 12 Y s 719 2035 m 12 Y s 746 2023 m 24 Y
 s 772 2035 m 12 Y s 799 2035 m 12 Y s 825 2035 m 12 Y s 852 2023 m 24 Y s 878 2035 m 12 Y s 905 2035 m 12 Y s 932 2035 m 12 Y s 958 2023 m 24 Y s 215 2023 m 24 Y s 958 2023 m 24 Y s 985 2035 m 12 Y s 1011 2035 m 12 Y s 1038 2035 m 12 Y s 208 1258 m
 789 Y s
 gsave  1088 1043 23 1108 C 60.6747 1899.88 t 90 r /Helvetica findfont 53.0981 sf 0 0 m (0.395 ) show NC gr 
 gsave  1088 1043 23 1108 C 37.9217 1888.5 t 90 r /Helvetica findfont 34.1345 sf 0 0 m ( ) show NC gr 
 gsave  1088 1043 23 1108 C 60.6747 1869.54 t 90 r /Helvetica findfont 53.0981 sf 0 0 m (/) show NC gr 
 gsave  1088 1043 23 1108 C 72.0512 1858.16 t 90 r /Helvetica findfont 34.1345 sf 0 0 m ( ) show NC gr 
 gsave  1088 1043 23 1108 C 60.6747 1660.97 t 90 r /Helvetica findfont 53.0981 sf 0 0 m (\(1/N\) dN) show NC gr  232 1258 m -24 X s 220 1282 m -12 X s 220 1305 m -12 X s 220 1328 m -12 X s 220 1351 m -12 X s 232 1375 m -24 X s 220 1398 m -12 X s 220
 1421 m -12 X s 220 1444 m -12 X s 220 1468 m -12 X s 232 1491 m -24 X s 220 1514 m -12 X s 220 1537 m -12 X s 220 1561 m -12 X s 220 1584 m -12 X s 232 1607 m -24 X s 220 1631 m -12 X s 220 1654 m -12 X s 220 1677 m -12 X s 220 1700 m -12 X s 232
 1724 m -24 X s 220 1747 m -12 X s 220 1770 m -12 X s 220 1793 m -12 X s 220 1817 m -12 X s 232 1840 m -24 X s 220 1863 m -12 X s 220 1886 m -12 X s 220 1910 m -12 X s 220 1933 m -12 X s 232 1956 m -24 X s 232 1956 m -24 X s 220 1979 m -12 X s 220
 2003 m -12 X s 220 2026 m -12 X s
 gsave  1088 1043 23 1108 C 166.855 1240.04 t 0 r /Helvetica findfont 45.5126 sf 0 0 m (0) show NC gr 
 gsave  1088 1043 23 1108 C 106.181 1357.6 t 0 r /Helvetica findfont 45.5126 sf 0 0 m (0.05) show NC gr 
 gsave  1088 1043 23 1108 C 136.518 1475.15 t 0 r /Helvetica findfont 45.5126 sf 0 0 m (0.1) show NC gr 
 gsave  1088 1043 23 1108 C 106.181 1588.92 t 0 r /Helvetica findfont 45.5126 sf 0 0 m (0.15) show NC gr 
 gsave  1088 1043 23 1108 C 128.934 1706.48 t 0 r /Helvetica findfont 45.5126 sf 0 0 m (0.2) show NC gr 
 gsave  1088 1043 23 1108 C 106.181 1824.03 t 0 r /Helvetica findfont 45.5126 sf 0 0 m (0.25) show NC gr 
 gsave  1088 1043 23 1108 C 128.934 1937.8 t 0 r /Helvetica findfont 45.5126 sf 0 0 m (0.3) show NC gr  1046 1258 m 789 Y s 1021 1258 m 25 X s 1034 1282 m 12 X s 1034 1305 m 12 X s 1034 1328 m 12 X s 1034 1351 m 12 X s 1021 1375 m 25 X s 1034 1398 m
 12 X s 1034 1421 m 12 X s 1034 1444 m 12 X s 1034 1468 m 12 X s 1021 1491 m 25 X s 1034 1514 m 12 X s 1034 1537 m 12 X s 1034 1561 m 12 X s 1034 1584 m 12 X s 1021 1607 m 25 X s 1034 1631 m 12 X s 1034 1654 m 12 X s 1034 1677 m 12 X s 1034 1700 m 12
 X s 1021 1724 m 25 X s 1034 1747 m 12 X s 1034 1770 m 12 X s 1034 1793 m 12 X s 1034 1817 m 12 X s 1021 1840 m 25 X s 1034 1863 m 12 X s 1034 1886 m 12 X s 1034 1910 m 12 X s 1034 1933 m 12 X s 1021 1956 m 25 X s 1021 1956 m 25 X s 1034 1979 m 12 X
 s 1034 2003 m 12 X s 1034 2026 m 12 X s 1 0 0 c 6 lw black 3 lw 1 0 0 c 1027 1258 m s 1004 1258 m s 981 1259 m -1 Y s 958 1259 m -1 -1 d s 936 1260 m -2 -2 d s 916 1263 m -5 -5 d s 894 1264 m -6 -6 d s 877 1270 m -12 -12 d s 852 1268 m -10 -10 d s
 836 1276 m -17 -18 d s 836 1299 m -40 -41 d s 822 1308 m -49 -50 d s 815 1324 m -65 -66 d s 794 1327 m -67 -69 d s 775 1330 m -72 -72 d s 773 1352 m -93 -94 d s 773 1375 m -116 -117 d s 766 1391 m -132 -133 d s 748 1396 m -137 -138 d s 732 1402 m
 -144 -144 d s 732 1426 m -167 -168 d s 732 1449 m -190 -191 d s 732 1472 m -213 -214 d s 732 1495 m -236 -237 d s 732 1518 m -259 -260 d s 732 1541 m -283 -283 d s 732 1565 m -306 -307 d s 732 1588 m -329 -330 d s 716 1596 m -336 -338 d s 711 1613 m
 -273 -273 d s 423 1324 m -6 -5 d s 400 1301 m -4 -3 d s 364 1265 m -7 -7 d s 711 1636 m -252 -252 d s 450 1375 m -12 -12 d s 338 1263 m -4 -5 d s 691 1640 m -232 -233 d s 311 1259 m -1 Y s 690 1662 m -189 -190 d s 494 1465 m -35 -35 d s 288 1259 m
 -1 Y s 690 1685 m -147 -147 d s 526 1521 m -4 -4 d s 510 1504 m -9 -8 d s 465 1459 m -6 -5 d s 265 1259 m -1 Y s 690 1708 m -147 -147 d s 242 1258 m s 690 1731 m -21 -21 d s 658 1699 m -115 -115 d s 219 1258 m s 690 1754 m -21 -21 d s 648 1712 m
 -105 -105 d s 690 1777 m -21 -21 d s 648 1735 m -21 -21 d s 624 1712 m -81 -82 d s 677 1788 m -8 -8 d s 648 1759 m -21 -21 d s 606 1717 m -63 -64 d s 648 1782 m -21 -21 d s 606 1740 m -63 -63 d s 648 1805 m -21 -21 d s 585 1742 m -21 -21 d s 554
 1711 m -11 -11 d s 629 1809 m -2 -2 d s 585 1765 m -21 -21 d s 585 1788 m -21 -21 d s 585 1811 m -21 -21 d s 585 1835 m -21 -21 d s 577 1850 m -13 -13 d s 6 lw 208 1258 m 42 X 1 Y 62 X 1 Y 21 X 3 Y 21 X 2 Y 21 X 12 Y 21 X 24 Y 21 X 23 Y 21 X 51 Y 21
 X 84 Y 21 X 6 Y 21 X 39 Y 21 X 17 Y 21 X 190 Y 21 X 139 Y 21 X -108 Y 21 X -30 Y 21 X 97 Y 21 X -110 Y 21 X 89 Y 21 X -148 Y 21 X -44 Y 21 X -200 Y 21 X -5 Y 20 X -61 Y 21 X -4 Y 21 X -18 Y 21 X -40 Y 21 X 2 Y 21 X -6 Y 21 X -1 Y 21 X -3 Y 21 X -1 Y
 42 X -1 Y 63 X s 0.490196 0.545098 0.615686 c 3 lw 1 1 1 c 0.490196 0.545098 0.615686 c 435 157 208 1890 bl 208 1890 m 435 X s 643 1890 m 157 Y s 643 2047 m -435 X s 208 2047 m -157 Y s black
 gsave  1088 1043 23 1108 C 337.503 1990.89 t 0 r /Helvetica-Bold findfont 49.3054 sf 0 0 m (Signal) show NC gr  0.49 0.6 0.82 c 227 1980 m 92 X 55 Y -92 X f 0 0 0.933333 c 6 lw 227 2035 m 92 X s 227 1980 m 92 X s 319 1980 m 55 Y s 227 1980 m 55 Y s
 black
 gsave  1088 1043 23 1108 C 337.503 1915.04 t 0 r /Helvetica-Bold findfont 49.3054 sf 0 0 m (Background) show NC gr  1 0 0 c 3 lw 319 1915 m -13 -13 d s 319 1938 m -36 -36 d s 314 1957 m -54 -55 d s 291 1957 m -54 -55 d s 268 1957 m -41 -41 d s 245
 1957 m -18 -18 d s 6 lw 0 0 0.933333 c 1 0 0 c 227 1957 m 92 X s 227 1902 m 92 X s 319 1902 m 55 Y s 227 1902 m 55 Y s black 3 lw 208 1258 m 838 X s 215 1282 m -24 Y s 242 1270 m -12 Y s 268 1270 m -12 Y s 295 1270 m -12 Y s 321 1282 m -24 Y s 348
 1270 m -12 Y s 375 1270 m -12 Y s 401 1270 m -12 Y s 428 1282 m -24 Y s 454 1270 m -12 Y s 481 1270 m -12 Y s 507 1270 m -12 Y s 534 1282 m -24 Y s 560 1270 m -12 Y s 587 1270 m -12 Y s 613 1270 m -12 Y s 640 1282 m -24 Y s 666 1270 m -12 Y s 693
 1270 m -12 Y s 719 1270 m -12 Y s 746 1282 m -24 Y s 772 1270 m -12 Y s 799 1270 m -12 Y s 825 1270 m -12 Y s 852 1282 m -24 Y s 878 1270 m -12 Y s 905 1270 m -12 Y s 932 1270 m -12 Y s 958 1282 m -24 Y s 215 1282 m -24 Y s 958 1282 m -24 Y s 985
 1270 m -12 Y s 1011 1270 m -12 Y s 1038 1270 m -12 Y s 208 2047 m 838 X s 215 2023 m 24 Y s 242 2035 m 12 Y s 268 2035 m 12 Y s 295 2035 m 12 Y s 321 2023 m 24 Y s 348 2035 m 12 Y s 375 2035 m 12 Y s 401 2035 m 12 Y s 428 2023 m 24 Y s 454 2035 m 12
 Y s 481 2035 m 12 Y s 507 2035 m 12 Y s 534 2023 m 24 Y s 560 2035 m 12 Y s 587 2035 m 12 Y s 613 2035 m 12 Y s 640 2023 m 24 Y s 666 2035 m 12 Y s 693 2035 m 12 Y s 719 2035 m 12 Y s 746 2023 m 24 Y s 772 2035 m 12 Y s 799 2035 m 12 Y s 825 2035 m
 12 Y s 852 2023 m 24 Y s 878 2035 m 12 Y s 905 2035 m 12 Y s 932 2035 m 12 Y s 958 2023 m 24 Y s 215 2023 m 24 Y s 958 2023 m 24 Y s 985 2035 m 12 Y s 1011 2035 m 12 Y s 1038 2035 m 12 Y s 208 1258 m 789 Y s 232 1258 m -24 X s 220 1282 m -12 X s 220
 1305 m -12 X s 220 1328 m -12 X s 220 1351 m -12 X s 232 1375 m -24 X s 220 1398 m -12 X s 220 1421 m -12 X s 220 1444 m -12 X s 220 1468 m -12 X s 232 1491 m -24 X s 220 1514 m -12 X s 220 1537 m -12 X s 220 1561 m -12 X s 220 1584 m -12 X s 232
 1607 m -24 X s 220 1631 m -12 X s 220 1654 m -12 X s 220 1677 m -12 X s 220 1700 m -12 X s 232 1724 m -24 X s 220 1747 m -12 X s 220 1770 m -12 X s 220 1793 m -12 X s 220 1817 m -12 X s 232 1840 m -24 X s 220 1863 m -12 X s 220 1886 m -12 X s 220
 1910 m -12 X s 220 1933 m -12 X s 232 1956 m -24 X s 232 1956 m -24 X s 220 1979 m -12 X s 220 2003 m -12 X s 220 2026 m -12 X s 1046 1258 m 789 Y s 1021 1258 m 25 X s 1034 1282 m 12 X s 1034 1305 m 12 X s 1034 1328 m 12 X s 1034 1351 m 12 X s 1021
 1375 m 25 X s 1034 1398 m 12 X s 1034 1421 m 12 X s 1034 1444 m 12 X s 1034 1468 m 12 X s 1021 1491 m 25 X s 1034 1514 m 12 X s 1034 1537 m 12 X s 1034 1561 m 12 X s 1034 1584 m 12 X s 1021 1607 m 25 X s 1034 1631 m 12 X s 1034 1654 m 12 X s 1034
 1677 m 12 X s 1034 1700 m 12 X s 1021 1724 m 25 X s 1034 1747 m 12 X s 1034 1770 m 12 X s 1034 1793 m 12 X s 1034 1817 m 12 X s 1021 1840 m 25 X s 1034 1863 m 12 X s 1034 1886 m 12 X s 1034 1910 m 12 X s 1034 1933 m 12 X s 1021 1956 m 25 X s 1021
 1956 m 25 X s 1034 1979 m 12 X s 1034 2003 m 12 X s 1034 2026 m 12 X s
 gsave  1088 1043 23 1108 C 1089.41 1254.2 t 90 r /Helvetica-Bold findfont 37.9272 sf 0 0 m (U/O\255flow \(S,B\): \(0.0, 0.0\)% / \(0.0, 0.0\)%) show NC gr  0.490196 0.545098 0.615686 c 0.364706 0.419608 0.490196 c 537 59 34 2087 bf 0.490196 0.545098
 0.615686 c 34 2087 m 537 X s 571 2087 m 59 Y s 571 2146 m -537 X s 34 2146 m -59 Y s 1 1 1 c black 1 1 1 c
 gsave  1088 1043 23 1108 C 60.6747 2104.65 t 0 r /Helvetica-Bold findfont 45.5126 sf 0 0 m (Input variable: myvar1) show NC gr  0.490196 0.545098 0.615686 c 1 1 1 c 1088 1043 1157 1108 bf black 1 1 1 c 838 789 1342 1258 bf black 838 789 1342 1258 bl
 1 1 1 c 838 789 1342 1258 bf black 838 789 1342 1258 bl 0 0 0.933333 c 6 lw 0.49 0.6 0.82 c black 3 lw 0.49 0.6 0.82 c 1342 1258 m 9 Y 41 X -9 Y 21 X 9 Y 63 X 35 Y 21 X 53 Y 21 X 17 Y 21 X 79 Y 21 X -9 Y 21 X 87 Y 21 X 105 Y 21 X -78 Y 21 X 122 Y 21
 X 192 Y 21 X -61 Y 21 X 166 Y 21 X -210 Y 21 X 53 Y 21 X 96 Y 21 X -140 Y 21 X 44 Y 21 X -96 Y 20 X -44 Y 21 X -96 Y 21 X -88 Y 21 X -52 Y 21 X -35 Y 21 X -35 Y 21 X -96 Y 21 X 26 Y 21 X 9 Y 21 X -53 Y 21 X 27 Y 21 X -27 Y 105 X f 6 lw 0 0 0.933333
 c 0.49 0.6 0.82 c 0 0 0.933333 c 1342 1267 m 41 X -9 Y 21 X 9 Y 63 X 35 Y 21 X 53 Y 21 X 17 Y 21 X 79 Y 21 X -9 Y 21 X 87 Y 21 X 105 Y 21 X -78 Y 21 X 122 Y 21 X 192 Y 21 X -61 Y 21 X 166 Y 21 X -210 Y 21 X 53 Y 21 X 96 Y 21 X -140 Y 21 X 44 Y 21 X
 -96 Y 20 X -44 Y 21 X -96 Y 21 X -88 Y 21 X -52 Y 21 X -35 Y 21 X -35 Y 21 X -96 Y 21 X 26 Y 21 X 9 Y 21 X -53 Y 21 X 27 Y 21 X -27 Y 105 X s black 3 lw 1342 1258 m 838 X s
 gsave  1088 1043 1157 1108 C 1869.54 1133.86 t 0 r /Helvetica findfont 53.0981 sf 0 0 m (Expression 2) show NC gr  1440 1282 m -24 Y s 1461 1270 m -12 Y s 1481 1270 m -12 Y s 1502 1270 m -12 Y s 1522 1270 m -12 Y s 1543 1282 m -24 Y s 1563 1270 m
 -12 Y s 1584 1270 m -12 Y s 1604 1270 m -12 Y s 1625 1270 m -12 Y s 1645 1282 m -24 Y s 1666 1270 m -12 Y s 1686 1270 m -12 Y s 1706 1270 m -12 Y s 1727 1270 m -12 Y s 1747 1282 m -24 Y s 1768 1270 m -12 Y s 1788 1270 m -12 Y s 1809 1270 m -12 Y s
 1829 1270 m -12 Y s 1850 1282 m -24 Y s 1870 1270 m -12 Y s 1891 1270 m -12 Y s 1911 1270 m -12 Y s 1932 1270 m -12 Y s 1952 1282 m -24 Y s 1972 1270 m -12 Y s 1993 1270 m -12 Y s 2013 1270 m -12 Y s 2034 1270 m -12 Y s 2054 1282 m -24 Y s 2075 1270
 m -12 Y s 2095 1270 m -12 Y s 2116 1270 m -12 Y s 2136 1270 m -12 Y s 2157 1282 m -24 Y s 1440 1282 m -24 Y s 1420 1270 m -12 Y s 1400 1270 m -12 Y s 1379 1270 m -12 Y s 1359 1270 m -12 Y s 2157 1282 m -24 Y s 2177 1270 m -12 Y s
 gsave  1088 1043 1157 1108 C 1433.44 1205.91 t 0 r /Helvetica findfont 45.5126 sf 0 0 m (3) show NC gr 
 gsave  1088 1043 1157 1108 C 1410.69 1205.91 t 0 r /Symbol findfont 45.5126 sf 0 0 m (-) show NC gr 
 gsave  1088 1043 1157 1108 C 1535.83 1205.91 t 0 r /Helvetica findfont 45.5126 sf 0 0 m (2) show NC gr 
 gsave  1088 1043 1157 1108 C 1513.08 1205.91 t 0 r /Symbol findfont 45.5126 sf 0 0 m (-) show NC gr 
 gsave  1088 1043 1157 1108 C 1642.01 1205.91 t 0 r /Helvetica findfont 45.5126 sf 0 0 m (1) show NC gr 
 gsave  1088 1043 1157 1108 C 1619.26 1205.91 t 0 r /Symbol findfont 45.5126 sf 0 0 m (-) show NC gr 
 gsave  1088 1043 1157 1108 C 1729.23 1205.91 t 0 r /Helvetica findfont 45.5126 sf 0 0 m (0) show NC gr 
 gsave  1088 1043 1157 1108 C 1835.41 1205.91 t 0 r /Helvetica findfont 45.5126 sf 0 0 m (1) show NC gr 
 gsave  1088 1043 1157 1108 C 1934.01 1205.91 t 0 r /Helvetica findfont 45.5126 sf 0 0 m (2) show NC gr 
 gsave  1088 1043 1157 1108 C 2036.39 1205.91 t 0 r /Helvetica findfont 45.5126 sf 0 0 m (3) show NC gr 
 gsave  1088 1043 1157 1108 C 2138.78 1205.91 t 0 r /Helvetica findfont 45.5126 sf 0 0 m (4) show NC gr  1342 2047 m 838 X s 1440 2023 m 24 Y s 1461 2035 m 12 Y s 1481 2035 m 12 Y s 1502 2035 m 12 Y s 1522 2035 m 12 Y s 1543 2023 m 24 Y s 1563 2035 m
 12 Y s 1584 2035 m 12 Y s 1604 2035 m 12 Y s 1625 2035 m 12 Y s 1645 2023 m 24 Y s 1666 2035 m 12 Y s 1686 2035 m 12 Y s 1706 2035 m 12 Y s 1727 2035 m 12 Y s 1747 2023 m 24 Y s 1768 2035 m 12 Y s 1788 2035 m 12 Y s 1809 2035 m 12 Y s 1829 2035 m 12
 Y s 1850 2023 m 24 Y s 1870 2035 m 12 Y s 1891 2035 m 12 Y s 1911 2035 m 12 Y s 1932 2035 m 12 Y s 1952 2023 m 24 Y s 1972 2035 m 12 Y s 1993 2035 m 12 Y s 2013 2035 m 12 Y s 2034 2035 m 12 Y s 2054 2023 m 24 Y s 2075 2035 m 12 Y s 2095 2035 m 12 Y
 s 2116 2035 m 12 Y s 2136 2035 m 12 Y s 2157 2023 m 24 Y s 1440 2023 m 24 Y s 1420 2035 m 12 Y s 1400 2035 m 12 Y s 1379 2035 m 12 Y s 1359 2035 m 12 Y s 2157 2023 m 24 Y s 2177 2035 m 12 Y s 1342 1258 m 789 Y s
 gsave  1088 1043 1157 1108 C 1198.33 1899.88 t 90 r /Helvetica findfont 53.0981 sf 0 0 m (0.205 ) show NC gr 
 gsave  1088 1043 1157 1108 C 1171.78 1888.5 t 90 r /Helvetica findfont 34.1345 sf 0 0 m ( ) show NC gr 
 gsave  1088 1043 1157 1108 C 1198.33 1869.54 t 90 r /Helvetica findfont 53.0981 sf 0 0 m (/) show NC gr 
 gsave  1088 1043 1157 1108 C 1209.7 1858.16 t 90 r /Helvetica findfont 34.1345 sf 0 0 m ( ) show NC gr 
 gsave  1088 1043 1157 1108 C 1198.33 1660.97 t 90 r /Helvetica findfont 53.0981 sf 0 0 m (\(1/N\) dN) show NC gr  1366 1258 m -24 X s 1354 1276 m -12 X s 1354 1294 m -12 X s 1354 1312 m -12 X s 1354 1330 m -12 X s 1366 1348 m -24 X s 1354 1366 m -12
 X s 1354 1384 m -12 X s 1354 1402 m -12 X s 1354 1420 m -12 X s 1366 1437 m -24 X s 1354 1455 m -12 X s 1354 1473 m -12 X s 1354 1491 m -12 X s 1354 1509 m -12 X s 1366 1527 m -24 X s 1354 1545 m -12 X s 1354 1563 m -12 X s 1354 1581 m -12 X s 1354
 1599 m -12 X s 1366 1616 m -24 X s 1354 1634 m -12 X s 1354 1652 m -12 X s 1354 1670 m -12 X s 1354 1688 m -12 X s 1366 1706 m -24 X s 1354 1724 m -12 X s 1354 1742 m -12 X s 1354 1760 m -12 X s 1354 1778 m -12 X s 1366 1795 m -24 X s 1354 1813 m
 -12 X s 1354 1831 m -12 X s 1354 1849 m -12 X s 1354 1867 m -12 X s 1366 1885 m -24 X s 1354 1903 m -12 X s 1354 1921 m -12 X s 1354 1939 m -12 X s 1354 1957 m -12 X s 1366 1975 m -24 X s 1366 1975 m -24 X s 1354 1992 m -12 X s 1354 2010 m -12 X s
 1354 2028 m -12 X s 1354 2046 m -12 X s
 gsave  1088 1043 1157 1108 C 1300.71 1240.04 t 0 r /Helvetica findfont 45.5126 sf 0 0 m (0) show NC gr 
 gsave  1088 1043 1157 1108 C 1240.04 1331.05 t 0 r /Helvetica findfont 45.5126 sf 0 0 m (0.05) show NC gr 
 gsave  1088 1043 1157 1108 C 1270.38 1422.06 t 0 r /Helvetica findfont 45.5126 sf 0 0 m (0.1) show NC gr 
 gsave  1088 1043 1157 1108 C 1240.04 1509.28 t 0 r /Helvetica findfont 45.5126 sf 0 0 m (0.15) show NC gr 
 gsave  1088 1043 1157 1108 C 1262.79 1600.29 t 0 r /Helvetica findfont 45.5126 sf 0 0 m (0.2) show NC gr 
 gsave  1088 1043 1157 1108 C 1240.04 1687.51 t 0 r /Helvetica findfont 45.5126 sf 0 0 m (0.25) show NC gr 
 gsave  1088 1043 1157 1108 C 1262.79 1778.53 t 0 r /Helvetica findfont 45.5126 sf 0 0 m (0.3) show NC gr 
 gsave  1088 1043 1157 1108 C 1240.04 1869.54 t 0 r /Helvetica findfont 45.5126 sf 0 0 m (0.35) show NC gr 
 gsave  1088 1043 1157 1108 C 1262.79 1956.76 t 0 r /Helvetica findfont 45.5126 sf 0 0 m (0.4) show NC gr  2180 1258 m 789 Y s 2155 1258 m 25 X s 2167 1276 m 13 X s 2167 1294 m 13 X s 2167 1312 m 13 X s 2167 1330 m 13 X s 2155 1348 m 25 X s 2167 1366
 m 13 X s 2167 1384 m 13 X s 2167 1402 m 13 X s 2167 1420 m 13 X s 2155 1437 m 25 X s 2167 1455 m 13 X s 2167 1473 m 13 X s 2167 1491 m 13 X s 2167 1509 m 13 X s 2155 1527 m 25 X s 2167 1545 m 13 X s 2167 1563 m 13 X s 2167 1581 m 13 X s 2167 1599 m
 13 X s 2155 1616 m 25 X s 2167 1634 m 13 X s 2167 1652 m 13 X s 2167 1670 m 13 X s 2167 1688 m 13 X s 2155 1706 m 25 X s 2167 1724 m 13 X s 2167 1742 m 13 X s 2167 1760 m 13 X s 2167 1778 m 13 X s 2155 1795 m 25 X s 2167 1813 m 13 X s 2167 1831 m 13
 X s 2167 1849 m 13 X s 2167 1867 m 13 X s 2155 1885 m 25 X s 2167 1903 m 13 X s 2167 1921 m 13 X s 2167 1939 m 13 X s 2167 1957 m 13 X s 2155 1975 m 25 X s 2155 1975 m 25 X s 2167 1992 m 13 X s 2167 2010 m 13 X s 2167 2028 m 13 X s 2167 2046 m 13 X
 s 1 0 0 c 6 lw black 3 lw 1 0 0 c 2180 1278 m -19 -20 d s 2169 1290 m -10 -10 d s 2137 1258 m s 2114 1258 m s 2091 1258 m s 2068 1258 m cl s 2051 1265 m -6 -7 d s 2029 1265 m -7 -7 d s 2012 1272 m -13 -14 d s 2012 1295 m -36 -37 d s 2009 1315 m -56
 -57 d s 1991 1320 m -61 -62 d s 1991 1343 m -84 -85 d s 1972 1347 m -89 -89 d s 1970 1369 m -110 -111 d s 1955 1377 m -118 -119 d s 1949 1394 m -135 -136 d s 1946 1414 m -155 -156 d s 1928 1419 m -160 -161 d s 1928 1442 m -183 -184 d s 1928 1466 m
 -21 -21 d s 1907 1445 m -185 -187 d s 1928 1489 m -21 -21 d s 1886 1447 m -187 -189 d s 1928 1512 m -21 -21 d s 1884 1468 m -208 -210 d s 1919 1526 m -12 -12 d s 1865 1472 m -212 -214 d s 1865 1495 m -236 -237 d s 1865 1518 m -259 -260 d s 1865 1541
 m -282 -283 d s 1865 1565 m -305 -307 d s 1865 1588 m -328 -330 d s 1865 1611 m -351 -353 d s 1865 1634 m -374 -376 d s 1865 1657 m -356 -357 d s 1497 1288 m -29 -30 d s 1865 1681 m -356 -358 d s 1488 1302 m -21 -21 d s 1447 1260 m -1 X s 1445 1259
 m -1 Y s 1865 1704 m -209 -211 d s 1648 1486 m -118 -119 d s 1519 1356 m -10 -10 d s 1476 1312 m -9 -8 d s 1425 1262 m -3 -4 d s 1865 1727 m -209 -210 d s 1635 1496 m -84 -85 d s 1539 1399 m -9 -9 d s 1425 1285 m -21 -21 d s 1399 1258 m s 1865 1750
 m -209 -210 d s 1635 1519 m -63 -63 d s 1572 1455 m -21 -20 d s 1405 1288 m -1 -1 d s 1375 1258 m cl s 1865 1773 m -209 -210 d s 1635 1542 m -21 -21 d s 1608 1515 m -15 -15 d s 1572 1479 m s 1352 1258 m cl s 1865 1796 m -209 -210 d s 1635 1565 m -21
 -21 d s 1865 1820 m -209 -211 d s 1635 1588 m -21 -21 d s 1865 1843 m -21 -21 d s 1824 1801 m -168 -169 d s 1635 1611 m -21 -21 d s 1859 1859 m -15 -14 d s 1824 1824 m -63 -63 d s 1757 1757 m -101 -101 d s 1635 1635 m -21 -21 d s 1824 1847 m -63 -63
 d s 1740 1763 m -84 -84 d s 1630 1653 m -16 -16 d s 1824 1870 m -63 -63 d s 1740 1786 m -63 -63 d s 1660 1706 m -4 -4 d s 1824 1893 m -63 -63 d s 1740 1809 m -63 -63 d s 1824 1917 m -21 -22 d s 1783 1876 m -1 -2 d s 1769 1862 m -8 -9 d s 1740 1832 m
 -63 -63 d s 1824 1940 m -21 -21 d s 1740 1856 m -63 -63 d s 1824 1963 m -21 -21 d s 1740 1879 m -42 -42 d s 1681 1820 m -4 -4 d s 1805 1967 m -2 -2 d s 1740 1902 m -42 -42 d s 1740 1925 m -42 -42 d s 1722 1930 m -24 -24 d s 1719 1950 m -21 -21 d s
 1717 1972 m -19 -19 d s 6 lw 1342 1258 m 62 X 30 Y 21 X -29 Y 21 X 1 Y 21 X 52 Y 21 X -24 Y 21 X 68 Y 21 X 43 Y 21 X 56 Y 21 X 24 Y 21 X 36 Y 21 X 138 Y 21 X -167 Y 21 X 220 Y 21 X 114 Y 21 X 152 Y 21 X -42 Y 21 X -173 Y 21 X 105 Y 21 X 14 Y 21 X 91
 Y 21 X -168 Y 20 X 60 Y 21 X -391 Y 21 X -23 Y 21 X 81 Y 21 X -112 Y 21 X -37 Y 21 X -30 Y 21 X -32 Y 21 X -50 Y 42 X -7 Y 105 X 32 Y 21 X s black 3 lw 1342 1258 m 838 X s 1440 1282 m -24 Y s 1461 1270 m -12 Y s 1481 1270 m -12 Y s 1502 1270 m -12 Y
 s 1522 1270 m -12 Y s 1543 1282 m -24 Y s 1563 1270 m -12 Y s 1584 1270 m -12 Y s 1604 1270 m -12 Y s 1625 1270 m -12 Y s 1645 1282 m -24 Y s 1666 1270 m -12 Y s 1686 1270 m -12 Y s 1706 1270 m -12 Y s 1727 1270 m -12 Y s 1747 1282 m -24 Y s 1768
 1270 m -12 Y s 1788 1270 m -12 Y s 1809 1270 m -12 Y s 1829 1270 m -12 Y s 1850 1282 m -24 Y s 1870 1270 m -12 Y s 1891 1270 m -12 Y s 1911 1270 m -12 Y s 1932 1270 m -12 Y s 1952 1282 m -24 Y s 1972 1270 m -12 Y s 1993 1270 m -12 Y s 2013 1270 m
 -12 Y s 2034 1270 m -12 Y s 2054 1282 m -24 Y s 2075 1270 m -12 Y s 2095 1270 m -12 Y s 2116 1270 m -12 Y s 2136 1270 m -12 Y s 2157 1282 m -24 Y s 1440 1282 m -24 Y s 1420 1270 m -12 Y s 1400 1270 m -12 Y s 1379 1270 m -12 Y s 1359 1270 m -12 Y s
 2157 1282 m -24 Y s 2177 1270 m -12 Y s 1342 2047 m 838 X s 1440 2023 m 24 Y s 1461 2035 m 12 Y s 1481 2035 m 12 Y s 1502 2035 m 12 Y s 1522 2035 m 12 Y s 1543 2023 m 24 Y s 1563 2035 m 12 Y s 1584 2035 m 12 Y s 1604 2035 m 12 Y s 1625 2035 m 12 Y s
 1645 2023 m 24 Y s 1666 2035 m 12 Y s 1686 2035 m 12 Y s 1706 2035 m 12 Y s 1727 2035 m 12 Y s 1747 2023 m 24 Y s 1768 2035 m 12 Y s 1788 2035 m 12 Y s 1809 2035 m 12 Y s 1829 2035 m 12 Y s 1850 2023 m 24 Y s 1870 2035 m 12 Y s 1891 2035 m 12 Y s
 1911 2035 m 12 Y s 1932 2035 m 12 Y s 1952 2023 m 24 Y s 1972 2035 m 12 Y s 1993 2035 m 12 Y s 2013 2035 m 12 Y s 2034 2035 m 12 Y s 2054 2023 m 24 Y s 2075 2035 m 12 Y s 2095 2035 m 12 Y s 2116 2035 m 12 Y s 2136 2035 m 12 Y s 2157 2023 m 24 Y s
 1440 2023 m 24 Y s 1420 2035 m 12 Y s 1400 2035 m 12 Y s 1379 2035 m 12 Y s 1359 2035 m 12 Y s 2157 2023 m 24 Y s 2177 2035 m 12 Y s 1342 1258 m 789 Y s 1366 1258 m -24 X s 1354 1276 m -12 X s 1354 1294 m -12 X s 1354 1312 m -12 X s 1354 1330 m -12
 X s 1366 1348 m -24 X s 1354 1366 m -12 X s 1354 1384 m -12 X s 1354 1402 m -12 X s 1354 1420 m -12 X s 1366 1437 m -24 X s 1354 1455 m -12 X s 1354 1473 m -12 X s 1354 1491 m -12 X s 1354 1509 m -12 X s 1366 1527 m -24 X s 1354 1545 m -12 X s 1354
 1563 m -12 X s 1354 1581 m -12 X s 1354 1599 m -12 X s 1366 1616 m -24 X s 1354 1634 m -12 X s 1354 1652 m -12 X s 1354 1670 m -12 X s 1354 1688 m -12 X s 1366 1706 m -24 X s 1354 1724 m -12 X s 1354 1742 m -12 X s 1354 1760 m -12 X s 1354 1778 m
 -12 X s 1366 1795 m -24 X s 1354 1813 m -12 X s 1354 1831 m -12 X s 1354 1849 m -12 X s 1354 1867 m -12 X s 1366 1885 m -24 X s 1354 1903 m -12 X s 1354 1921 m -12 X s 1354 1939 m -12 X s 1354 1957 m -12 X s 1366 1975 m -24 X s 1366 1975 m -24 X s
 1354 1992 m -12 X s 1354 2010 m -12 X s 1354 2028 m -12 X s 1354 2046 m -12 X s 2180 1258 m 789 Y s 2155 1258 m 25 X s 2167 1276 m 13 X s 2167 1294 m 13 X s 2167 1312 m 13 X s 2167 1330 m 13 X s 2155 1348 m 25 X s 2167 1366 m 13 X s 2167 1384 m 13 X
 s 2167 1402 m 13 X s 2167 1420 m 13 X s 2155 1437 m 25 X s 2167 1455 m 13 X s 2167 1473 m 13 X s 2167 1491 m 13 X s 2167 1509 m 13 X s 2155 1527 m 25 X s 2167 1545 m 13 X s 2167 1563 m 13 X s 2167 1581 m 13 X s 2167 1599 m 13 X s 2155 1616 m 25 X s
 2167 1634 m 13 X s 2167 1652 m 13 X s 2167 1670 m 13 X s 2167 1688 m 13 X s 2155 1706 m 25 X s 2167 1724 m 13 X s 2167 1742 m 13 X s 2167 1760 m 13 X s 2167 1778 m 13 X s 2155 1795 m 25 X s 2167 1813 m 13 X s 2167 1831 m 13 X s 2167 1849 m 13 X s
 2167 1867 m 13 X s 2155 1885 m 25 X s 2167 1903 m 13 X s 2167 1921 m 13 X s 2167 1939 m 13 X s 2167 1957 m 13 X s 2155 1975 m 25 X s 2155 1975 m 25 X s 2167 1992 m 13 X s 2167 2010 m 13 X s 2167 2028 m 13 X s 2167 2046 m 13 X s
 gsave  1088 1043 1157 1108 C 2223.27 1254.2 t 90 r /Helvetica-Bold findfont 37.9272 sf 0 0 m (U/O\255flow \(S,B\): \(0.0, 0.0\)% / \(0.0, 0.0\)%) show NC gr  0.490196 0.545098 0.615686 c 0.364706 0.419608 0.490196 c 678 59 1167 2087 bf 0.490196
 0.545098 0.615686 c 1167 2087 m 678 X s 1845 2087 m 59 Y s 1845 2146 m -678 X s 1167 2146 m -59 Y s 1 1 1 c black 1 1 1 c
 gsave  1088 1043 1157 1108 C 1202.12 2104.65 t 0 r /Helvetica-Bold findfont 45.5126 sf 0 0 m (Input variable: Expression 2) show NC gr  0.490196 0.545098 0.615686 c 1 1 1 c 1088 1043 23 22 bf black 1 1 1 c 838 788 208 172 bf black 838 788 208 172 bl
 1 1 1 c 838 788 208 172 bf black 838 788 208 172 bl 0 0 0.933333 c 6 lw 0.49 0.6 0.82 c black 3 lw 0.49 0.6 0.82 c 208 172 m 188 X 7 Y 21 X 7 Y 42 X 20 Y 21 X 55 Y 21 X 7 Y 21 X 96 Y 21 X -41 Y 21 X 89 Y 21 X 123 Y 21 X 137 Y 21 X 7 Y 21 X 151 Y 42
 X -69 Y 21 X 76 Y 42 X -316 Y 20 X 7 Y 21 X -157 Y 21 X 41 Y 21 X -130 Y 21 X -42 Y 21 X -27 Y 21 X -27 Y 21 X 6 Y 21 X -6 Y 21 X -14 Y 84 X f 6 lw 0 0 0.933333 c 0.49 0.6 0.82 c 0 0 0.933333 c 208 172 m 188 X 7 Y 21 X 7 Y 42 X 20 Y 21 X 55 Y 21 X 7
 Y 21 X 96 Y 21 X -41 Y 21 X 89 Y 21 X 123 Y 21 X 137 Y 21 X 7 Y 21 X 151 Y 42 X -69 Y 21 X 76 Y 42 X -316 Y 20 X 7 Y 21 X -157 Y 21 X 41 Y 21 X -130 Y 21 X -42 Y 21 X -27 Y 21 X -27 Y 21 X 6 Y 21 X -6 Y 21 X -14 Y 84 X s black 3 lw 208 172 m 838 X s
 gsave  1088 1043 23 22 C 633.292 41.7138 t 0 r /Helvetica findfont 53.0981 sf 0 0 m (Variable 3  [units]) show NC gr  211 196 m -24 Y s 229 184 m -12 Y s 246 184 m -12 Y s 264 184 m -12 Y s 281 184 m -12 Y s 299 196 m -24 Y s 316 184 m -12 Y s 334
 184 m -12 Y s 351 184 m -12 Y s 369 184 m -12 Y s 387 196 m -24 Y s 404 184 m -12 Y s 422 184 m -12 Y s 439 184 m -12 Y s 457 184 m -12 Y s 474 196 m -24 Y s 492 184 m -12 Y s 509 184 m -12 Y s 527 184 m -12 Y s 545 184 m -12 Y s 562 196 m -24 Y s
 580 184 m -12 Y s 597 184 m -12 Y s 615 184 m -12 Y s 632 184 m -12 Y s 650 196 m -24 Y s 667 184 m -12 Y s 685 184 m -12 Y s 703 184 m -12 Y s 720 184 m -12 Y s 738 196 m -24 Y s 755 184 m -12 Y s 773 184 m -12 Y s 790 184 m -12 Y s 808 184 m -12 Y
 s 825 196 m -24 Y s 843 184 m -12 Y s 861 184 m -12 Y s 878 184 m -12 Y s 896 184 m -12 Y s 913 196 m -24 Y s 931 184 m -12 Y s 948 184 m -12 Y s 966 184 m -12 Y s 983 184 m -12 Y s 1001 196 m -24 Y s 211 196 m -24 Y s 1001 196 m -24 Y s 1019 184 m
 -12 Y s 1036 184 m -12 Y s
 gsave  1088 1043 23 22 C 204.777 121.349 t 0 r /Helvetica findfont 45.5126 sf 0 0 m (5) show NC gr 
 gsave  1088 1043 23 22 C 182.024 121.349 t 0 r /Symbol findfont 45.5126 sf 0 0 m (-) show NC gr 
 gsave  1088 1043 23 22 C 291.997 121.349 t 0 r /Helvetica findfont 45.5126 sf 0 0 m (4) show NC gr 
 gsave  1088 1043 23 22 C 269.244 121.349 t 0 r /Symbol findfont 45.5126 sf 0 0 m (-) show NC gr 
 gsave  1088 1043 23 22 C 379.217 121.349 t 0 r /Helvetica findfont 45.5126 sf 0 0 m (3) show NC gr 
 gsave  1088 1043 23 22 C 356.464 121.349 t 0 r /Symbol findfont 45.5126 sf 0 0 m (-) show NC gr 
 gsave  1088 1043 23 22 C 470.229 121.349 t 0 r /Helvetica findfont 45.5126 sf 0 0 m (2) show NC gr 
 gsave  1088 1043 23 22 C 447.476 121.349 t 0 r /Symbol findfont 45.5126 sf 0 0 m (-) show NC gr 
 gsave  1088 1043 23 22 C 561.241 121.349 t 0 r /Helvetica findfont 45.5126 sf 0 0 m (1) show NC gr 
 gsave  1088 1043 23 22 C 538.488 121.349 t 0 r /Symbol findfont 45.5126 sf 0 0 m (-) show NC gr 
 gsave  1088 1043 23 22 C 633.292 121.349 t 0 r /Helvetica findfont 45.5126 sf 0 0 m (0) show NC gr 
 gsave  1088 1043 23 22 C 724.304 121.349 t 0 r /Helvetica findfont 45.5126 sf 0 0 m (1) show NC gr 
 gsave  1088 1043 23 22 C 807.732 121.349 t 0 r /Helvetica findfont 45.5126 sf 0 0 m (2) show NC gr 
 gsave  1088 1043 23 22 C 894.952 121.349 t 0 r /Helvetica findfont 45.5126 sf 0 0 m (3) show NC gr 
 gsave  1088 1043 23 22 C 982.172 121.349 t 0 r /Helvetica findfont 45.5126 sf 0 0 m (4) show NC gr  208 960 m 838 X s 211 936 m 24 Y s 229 948 m 12 Y s 246 948 m 12 Y s 264 948 m 12 Y s 281 948 m 12 Y s 299 936 m 24 Y s 316 948 m 12 Y s 334 948 m 12
 Y s 351 948 m 12 Y s 369 948 m 12 Y s 387 936 m 24 Y s 404 948 m 12 Y s 422 948 m 12 Y s 439 948 m 12 Y s 457 948 m 12 Y s 474 936 m 24 Y s 492 948 m 12 Y s 509 948 m 12 Y s 527 948 m 12 Y s 545 948 m 12 Y s 562 936 m 24 Y s 580 948 m 12 Y s 597 948
 m 12 Y s 615 948 m 12 Y s 632 948 m 12 Y s 650 936 m 24 Y s 667 948 m 12 Y s 685 948 m 12 Y s 703 948 m 12 Y s 720 948 m 12 Y s 738 936 m 24 Y s 755 948 m 12 Y s 773 948 m 12 Y s 790 948 m 12 Y s 808 948 m 12 Y s 825 936 m 24 Y s 843 948 m 12 Y s
 861 948 m 12 Y s 878 948 m 12 Y s 896 948 m 12 Y s 913 936 m 24 Y s 931 948 m 12 Y s 948 948 m 12 Y s 966 948 m 12 Y s 983 948 m 12 Y s 1001 936 m 24 Y s 211 936 m 24 Y s 1001 936 m 24 Y s 1019 948 m 12 Y s 1036 948 m 12 Y s 208 172 m 788 Y s
 gsave  1088 1043 23 22 C 60.6747 705.343 t 90 r /Helvetica findfont 53.0981 sf 0 0 m (0.239 units) show NC gr 
 gsave  1088 1043 23 22 C 37.9217 693.967 t 90 r /Helvetica findfont 34.1345 sf 0 0 m ( ) show NC gr 
 gsave  1088 1043 23 22 C 60.6747 675.006 t 90 r /Helvetica findfont 53.0981 sf 0 0 m (/) show NC gr 
 gsave  1088 1043 23 22 C 72.0512 663.629 t 90 r /Helvetica findfont 34.1345 sf 0 0 m ( ) show NC gr 
 gsave  1088 1043 23 22 C 60.6747 466.437 t 90 r /Helvetica findfont 53.0981 sf 0 0 m (\(1/N\) dN) show NC gr  232 172 m -24 X s 220 188 m -12 X s 220 205 m -12 X s 220 221 m -12 X s 220 237 m -12 X s 232 254 m -24 X s 220 270 m -12 X s 220 286 m -12
 X s 220 303 m -12 X s 220 319 m -12 X s 232 336 m -24 X s 220 352 m -12 X s 220 368 m -12 X s 220 385 m -12 X s 220 401 m -12 X s 232 417 m -24 X s 220 434 m -12 X s 220 450 m -12 X s 220 466 m -12 X s 220 483 m -12 X s 232 499 m -24 X s 220 515 m
 -12 X s 220 532 m -12 X s 220 548 m -12 X s 220 565 m -12 X s 232 581 m -24 X s 220 597 m -12 X s 220 614 m -12 X s 220 630 m -12 X s 220 646 m -12 X s 232 663 m -24 X s 220 679 m -12 X s 220 695 m -12 X s 220 712 m -12 X s 220 728 m -12 X s 232 745
 m -24 X s 220 761 m -12 X s 220 777 m -12 X s 220 794 m -12 X s 220 810 m -12 X s 232 826 m -24 X s 220 843 m -12 X s 220 859 m -12 X s 220 875 m -12 X s 220 892 m -12 X s 232 908 m -24 X s 232 908 m -24 X s 220 924 m -12 X s 220 941 m -12 X s 220
 957 m -12 X s
 gsave  1088 1043 23 22 C 166.855 155.479 t 0 r /Helvetica findfont 45.5126 sf 0 0 m (0) show NC gr 
 gsave  1088 1043 23 22 C 106.181 235.114 t 0 r /Helvetica findfont 45.5126 sf 0 0 m (0.05) show NC gr 
 gsave  1088 1043 23 22 C 136.518 318.542 t 0 r /Helvetica findfont 45.5126 sf 0 0 m (0.1) show NC gr 
 gsave  1088 1043 23 22 C 106.181 401.97 t 0 r /Helvetica findfont 45.5126 sf 0 0 m (0.15) show NC gr 
 gsave  1088 1043 23 22 C 128.934 481.605 t 0 r /Helvetica findfont 45.5126 sf 0 0 m (0.2) show NC gr 
 gsave  1088 1043 23 22 C 106.181 565.033 t 0 r /Helvetica findfont 45.5126 sf 0 0 m (0.25) show NC gr 
 gsave  1088 1043 23 22 C 128.934 644.669 t 0 r /Helvetica findfont 45.5126 sf 0 0 m (0.3) show NC gr 
 gsave  1088 1043 23 22 C 106.181 728.096 t 0 r /Helvetica findfont 45.5126 sf 0 0 m (0.35) show NC gr 
 gsave  1088 1043 23 22 C 128.934 807.732 t 0 r /Helvetica findfont 45.5126 sf 0 0 m (0.4) show NC gr 
 gsave  1088 1043 23 22 C 106.181 891.159 t 0 r /Helvetica findfont 45.5126 sf 0 0 m (0.45) show NC gr  1046 172 m 788 Y s 1021 172 m 25 X s 1034 188 m 12 X s 1034 205 m 12 X s 1034 221 m 12 X s 1034 237 m 12 X s 1021 254 m 25 X s 1034 270 m 12 X s
 1034 286 m 12 X s 1034 303 m 12 X s 1034 319 m 12 X s 1021 336 m 25 X s 1034 352 m 12 X s 1034 368 m 12 X s 1034 385 m 12 X s 1034 401 m 12 X s 1021 417 m 25 X s 1034 434 m 12 X s 1034 450 m 12 X s 1034 466 m 12 X s 1034 483 m 12 X s 1021 499 m 25 X
 s 1034 515 m 12 X s 1034 532 m 12 X s 1034 548 m 12 X s 1034 565 m 12 X s 1021 581 m 25 X s 1034 597 m 12 X s 1034 614 m 12 X s 1034 630 m 12 X s 1034 646 m 12 X s 1021 663 m 25 X s 1034 679 m 12 X s 1034 695 m 12 X s 1034 712 m 12 X s 1034 728 m 12
 X s 1021 745 m 25 X s 1034 761 m 12 X s 1034 777 m 12 X s 1034 794 m 12 X s 1034 810 m 12 X s 1021 826 m 25 X s 1034 843 m 12 X s 1034 859 m 12 X s 1034 875 m 12 X s 1034 892 m 12 X s 1021 908 m 25 X s 1021 908 m 25 X s 1034 924 m 12 X s 1034 941 m
 12 X s 1034 957 m 12 X s 1 0 0 c 6 lw black 3 lw 1 0 0 c 1027 172 m s 1004 172 m s 981 172 m s 958 172 m -1 X s 936 173 m -2 -1 d s 913 174 m -2 -2 d s 894 178 m -6 -6 d s 874 181 m -9 -9 d s 857 187 m -15 -15 d s 838 191 m -2 -2 d s 833 186 m -14
 -14 d s 815 192 m -19 -20 d s 815 215 m -42 -43 d s 815 238 m -65 -66 d s 813 258 m -86 -86 d s 794 263 m -91 -91 d s 794 286 m -114 -114 d s 774 289 m -117 -117 d s 773 312 m -139 -140 d s 773 335 m -162 -163 d s 766 351 m -178 -179 d s 739 346 m
 -174 -174 d s 732 362 m -190 -190 d s 732 386 m -213 -214 d s 732 409 m -236 -237 d s 732 432 m -259 -260 d s 732 455 m -283 -283 d s 732 478 m -306 -306 d s 732 501 m -329 -329 d s 731 524 m -351 -352 d s 711 527 m -294 -295 d s 399 214 m -3 -3 d s
 378 193 m -3 -3 d s 362 177 m -5 -5 d s 711 550 m -273 -273 d s 418 256 m -1 -1 d s 340 178 m -6 -6 d s 711 573 m -252 -252 d s 450 311 m -12 -11 d s 313 174 m -1 X s 312 173 m -1 -1 d s 711 596 m -21 -21 d s 682 567 m -223 -223 d s 288 172 m s 711
 619 m -21 -21 d s 669 577 m -147 -147 d s 519 428 m -60 -61 d s 265 172 m s 711 643 m -21 -21 d s 669 600 m -147 -147 d s 501 432 m -42 -42 d s 242 172 m s 711 666 m -21 -21 d s 669 624 m -105 -105 d s 562 516 m -40 -40 d s 488 442 m -8 -8 d s 465
 419 m -6 -6 d s 219 172 m s 711 689 m -21 -21 d s 669 647 m -105 -105 d s 543 521 m -21 -21 d s 711 712 m -21 -21 d s 669 670 m -105 -105 d s 542 542 m -20 -19 d s 704 728 m -14 -14 d s 669 693 m -105 -105 d s 669 716 m -105 -105 d s 669 740 m -21
 -22 d s 645 716 m -81 -82 d s 669 763 m -21 -21 d s 627 721 m -63 -63 d s 669 786 m -21 -21 d s 627 744 m -63 -63 d s 653 793 m -5 -5 d s 627 767 m -63 -63 d s 627 790 m -42 -42 d s 576 739 m -12 -12 d s 627 813 m -42 -42 d s 627 836 m -42 -42 d s
 627 860 m -42 -42 d s 627 883 m -42 -42 d s 610 889 m -4 -4 d s 594 873 m -9 -9 d s 6 lw 208 172 m 84 X 1 Y 20 X 1 Y 21 X 4 Y 21 X -1 Y 21 X 16 Y 21 X 21 Y 21 X 42 Y 21 X 55 Y 21 X 108 Y 21 X 23 Y 21 X -14 Y 21 X 114 Y 21 X -26 Y 21 X 223 Y 21 X 134
 Y 21 X 16 Y 21 X -173 Y 21 X 77 Y 21 X -226 Y 21 X 161 Y 21 X -204 Y 21 X -178 Y 21 X 5 Y 20 X -62 Y 21 X -31 Y 21 X -72 Y 21 X 5 Y 21 X -10 Y 21 X -3 Y 21 X -4 Y 21 X -1 Y 21 X -1 Y 105 X s black 3 lw 208 172 m 838 X s 211 196 m -24 Y s 229 184 m
 -12 Y s 246 184 m -12 Y s 264 184 m -12 Y s 281 184 m -12 Y s 299 196 m -24 Y s 316 184 m -12 Y s 334 184 m -12 Y s 351 184 m -12 Y s 369 184 m -12 Y s 387 196 m -24 Y s 404 184 m -12 Y s 422 184 m -12 Y s 439 184 m -12 Y s 457 184 m -12 Y s 474 196
 m -24 Y s 492 184 m -12 Y s 509 184 m -12 Y s 527 184 m -12 Y s 545 184 m -12 Y s 562 196 m -24 Y s 580 184 m -12 Y s 597 184 m -12 Y s 615 184 m -12 Y s 632 184 m -12 Y s 650 196 m -24 Y s 667 184 m -12 Y s 685 184 m -12 Y s 703 184 m -12 Y s 720
 184 m -12 Y s 738 196 m -24 Y s 755 184 m -12 Y s 773 184 m -12 Y s 790 184 m -12 Y s 808 184 m -12 Y s 825 196 m -24 Y s 843 184 m -12 Y s 861 184 m -12 Y s 878 184 m -12 Y s 896 184 m -12 Y s 913 196 m -24 Y s 931 184 m -12 Y s 948 184 m -12 Y s
 966 184 m -12 Y s 983 184 m -12 Y s 1001 196 m -24 Y s 211 196 m -24 Y s 1001 196 m -24 Y s 1019 184 m -12 Y s 1036 184 m -12 Y s 208 960 m 838 X s 211 936 m 24 Y s 229 948 m 12 Y s 246 948 m 12 Y s 264 948 m 12 Y s 281 948 m 12 Y s 299 936 m 24 Y s
 316 948 m 12 Y s 334 948 m 12 Y s 351 948 m 12 Y s 369 948 m 12 Y s 387 936 m 24 Y s 404 948 m 12 Y s 422 948 m 12 Y s 439 948 m 12 Y s 457 948 m 12 Y s 474 936 m 24 Y s 492 948 m 12 Y s 509 948 m 12 Y s 527 948 m 12 Y s 545 948 m 12 Y s 562 936 m
 24 Y s 580 948 m 12 Y s 597 948 m 12 Y s 615 948 m 12 Y s 632 948 m 12 Y s 650 936 m 24 Y s 667 948 m 12 Y s 685 948 m 12 Y s 703 948 m 12 Y s 720 948 m 12 Y s 738 936 m 24 Y s 755 948 m 12 Y s 773 948 m 12 Y s 790 948 m 12 Y s 808 948 m 12 Y s 825
 936 m 24 Y s 843 948 m 12 Y s 861 948 m 12 Y s 878 948 m 12 Y s 896 948 m 12 Y s 913 936 m 24 Y s 931 948 m 12 Y s 948 948 m 12 Y s 966 948 m 12 Y s 983 948 m 12 Y s 1001 936 m 24 Y s 211 936 m 24 Y s 1001 936 m 24 Y s 1019 948 m 12 Y s 1036 948 m
 12 Y s 208 172 m 788 Y s 232 172 m -24 X s 220 188 m -12 X s 220 205 m -12 X s 220 221 m -12 X s 220 237 m -12 X s 232 254 m -24 X s 220 270 m -12 X s 220 286 m -12 X s 220 303 m -12 X s 220 319 m -12 X s 232 336 m -24 X s 220 352 m -12 X s 220 368
 m -12 X s 220 385 m -12 X s 220 401 m -12 X s 232 417 m -24 X s 220 434 m -12 X s 220 450 m -12 X s 220 466 m -12 X s 220 483 m -12 X s 232 499 m -24 X s 220 515 m -12 X s 220 532 m -12 X s 220 548 m -12 X s 220 565 m -12 X s 232 581 m -24 X s 220
 597 m -12 X s 220 614 m -12 X s 220 630 m -12 X s 220 646 m -12 X s 232 663 m -24 X s 220 679 m -12 X s 220 695 m -12 X s 220 712 m -12 X s 220 728 m -12 X s 232 745 m -24 X s 220 761 m -12 X s 220 777 m -12 X s 220 794 m -12 X s 220 810 m -12 X s
 232 826 m -24 X s 220 843 m -12 X s 220 859 m -12 X s 220 875 m -12 X s 220 892 m -12 X s 232 908 m -24 X s 232 908 m -24 X s 220 924 m -12 X s 220 941 m -12 X s 220 957 m -12 X s 1046 172 m 788 Y s 1021 172 m 25 X s 1034 188 m 12 X s 1034 205 m 12
 X s 1034 221 m 12 X s 1034 237 m 12 X s 1021 254 m 25 X s 1034 270 m 12 X s 1034 286 m 12 X s 1034 303 m 12 X s 1034 319 m 12 X s 1021 336 m 25 X s 1034 352 m 12 X s 1034 368 m 12 X s 1034 385 m 12 X s 1034 401 m 12 X s 1021 417 m 25 X s 1034 434 m
 12 X s 1034 450 m 12 X s 1034 466 m 12 X s 1034 483 m 12 X s 1021 499 m 25 X s 1034 515 m 12 X s 1034 532 m 12 X s 1034 548 m 12 X s 1034 565 m 12 X s 1021 581 m 25 X s 1034 597 m 12 X s 1034 614 m 12 X s 1034 630 m 12 X s 1034 646 m 12 X s 1021 663
 m 25 X s 1034 679 m 12 X s 1034 695 m 12 X s 1034 712 m 12 X s 1034 728 m 12 X s 1021 745 m 25 X s 1034 761 m 12 X s 1034 777 m 12 X s 1034 794 m 12 X s 1034 810 m 12 X s 1021 826 m 25 X s 1034 843 m 12 X s 1034 859 m 12 X s 1034 875 m 12 X s 1034
 892 m 12 X s 1021 908 m 25 X s 1021 908 m 25 X s 1034 924 m 12 X s 1034 941 m 12 X s 1034 957 m 12 X s
 gsave  1088 1043 23 22 C 1089.41 167.749 t 90 r /Helvetica-Bold findfont 37.9272 sf 0 0 m (U/O\255flow \(S,B\): \(0.0, 0.0\)% / \(0.0, 0.0\)%) show NC gr  0.490196 0.545098 0.615686 c 0.364706 0.419608 0.490196 c 605 60 34 1000 bf 0.490196 0.545098
 0.615686 c 34 1000 m 605 X s 639 1000 m 60 Y s 639 1060 m -605 X s 34 1060 m -60 Y s 1 1 1 c black 1 1 1 c
 gsave  1088 1043 23 22 C 64.4669 1016.3 t 0 r /Helvetica-Bold findfont 45.5126 sf 0 0 m (Input variable: Variable 3) show NC gr  0.490196 0.545098 0.615686 c 1 1 1 c 1088 1043 1157 22 bf black 1 1 1 c 838 788 1342 172 bf black 838 788 1342 172 bl 1
 1 1 c 838 788 1342 172 bf black 838 788 1342 172 bl 0 0 0.933333 c 6 lw 0.49 0.6 0.82 c black 3 lw 0.49 0.6 0.82 c 1342 172 m 251 X 7 Y 21 X 6 Y 21 X 27 Y 21 X 7 Y 21 X 33 Y 21 X 7 Y 21 X 101 Y 21 X 46 Y 21 X 148 Y 21 X 60 Y 21 X 168 Y 21 X 80 Y 20
 X -101 Y 21 X 54 Y 21 X 74 Y 21 X -215 Y 21 X -73 Y 21 X -134 Y 21 X -41 Y 21 X -53 Y 21 X -67 Y 21 X -74 Y 21 X -60 Y 21 X 27 Y 21 X -20 Y 21 X 6 Y 21 X -6 Y 21 X -7 Y 21 X f 6 lw 0 0 0.933333 c 0.49 0.6 0.82 c 0 0 0.933333 c 1342 172 m 251 X 7 Y
 21 X 6 Y 21 X 27 Y 21 X 7 Y 21 X 33 Y 21 X 7 Y 21 X 101 Y 21 X 46 Y 21 X 148 Y 21 X 60 Y 21 X 168 Y 21 X 80 Y 20 X -101 Y 21 X 54 Y 21 X 74 Y 21 X -215 Y 21 X -73 Y 21 X -134 Y 21 X -41 Y 21 X -53 Y 21 X -67 Y 21 X -74 Y 21 X -60 Y 21 X 27 Y 21 X
 -20 Y 21 X 6 Y 21 X -6 Y 21 X -7 Y 21 X s black 3 lw 1342 172 m 838 X s
 gsave  1088 1043 1157 22 C 1767.15 41.7138 t 0 r /Helvetica findfont 53.0981 sf 0 0 m (Variable 4  [units]) show NC gr  1492 196 m -24 Y s 1531 184 m -12 Y s 1569 184 m -12 Y s 1608 184 m -12 Y s 1647 196 m -24 Y s 1685 184 m -12 Y s 1724 184 m -12
 Y s 1762 184 m -12 Y s 1801 196 m -24 Y s 1840 184 m -12 Y s 1878 184 m -12 Y s 1917 184 m -12 Y s 1955 196 m -24 Y s 1994 184 m -12 Y s 2033 184 m -12 Y s 2071 184 m -12 Y s 2110 196 m -24 Y s 1492 196 m -24 Y s 1454 184 m -12 Y s 1415 184 m -12 Y
 s 1376 184 m -12 Y s 2110 196 m -24 Y s 2148 184 m -12 Y s
 gsave  1088 1043 1157 22 C 1486.53 121.349 t 0 r /Helvetica findfont 45.5126 sf 0 0 m (4) show NC gr 
 gsave  1088 1043 1157 22 C 1463.78 121.349 t 0 r /Symbol findfont 45.5126 sf 0 0 m (-) show NC gr 
 gsave  1088 1043 1157 22 C 1642.01 121.349 t 0 r /Helvetica findfont 45.5126 sf 0 0 m (2) show NC gr 
 gsave  1088 1043 1157 22 C 1619.26 121.349 t 0 r /Symbol findfont 45.5126 sf 0 0 m (-) show NC gr 
 gsave  1088 1043 1157 22 C 1782.32 121.349 t 0 r /Helvetica findfont 45.5126 sf 0 0 m (0) show NC gr 
 gsave  1088 1043 1157 22 C 1937.8 121.349 t 0 r /Helvetica findfont 45.5126 sf 0 0 m (2) show NC gr 
 gsave  1088 1043 1157 22 C 2093.28 121.349 t 0 r /Helvetica findfont 45.5126 sf 0 0 m (4) show NC gr  1342 960 m 838 X s 1492 936 m 24 Y s 1531 948 m 12 Y s 1569 948 m 12 Y s 1608 948 m 12 Y s 1647 936 m 24 Y s 1685 948 m 12 Y s 1724 948 m 12 Y s
 1762 948 m 12 Y s 1801 936 m 24 Y s 1840 948 m 12 Y s 1878 948 m 12 Y s 1917 948 m 12 Y s 1955 936 m 24 Y s 1994 948 m 12 Y s 2033 948 m 12 Y s 2071 948 m 12 Y s 2110 936 m 24 Y s 1492 936 m 24 Y s 1454 948 m 12 Y s 1415 948 m 12 Y s 1376 948 m 12 Y
 s 2110 936 m 24 Y s 2148 948 m 12 Y s 1342 172 m 788 Y s
 gsave  1088 1043 1157 22 C 1198.33 705.343 t 90 r /Helvetica findfont 53.0981 sf 0 0 m (0.271 units) show NC gr 
 gsave  1088 1043 1157 22 C 1171.78 693.967 t 90 r /Helvetica findfont 34.1345 sf 0 0 m ( ) show NC gr 
 gsave  1088 1043 1157 22 C 1198.33 675.006 t 90 r /Helvetica findfont 53.0981 sf 0 0 m (/) show NC gr 
 gsave  1088 1043 1157 22 C 1209.7 663.629 t 90 r /Helvetica findfont 34.1345 sf 0 0 m ( ) show NC gr 
 gsave  1088 1043 1157 22 C 1198.33 466.437 t 90 r /Helvetica findfont 53.0981 sf 0 0 m (\(1/N\) dN) show NC gr  1366 172 m -24 X s 1354 190 m -12 X s 1354 208 m -12 X s 1354 226 m -12 X s 1354 245 m -12 X s 1366 263 m -24 X s 1354 281 m -12 X s 1354
 299 m -12 X s 1354 317 m -12 X s 1354 336 m -12 X s 1366 354 m -24 X s 1354 372 m -12 X s 1354 390 m -12 X s 1354 408 m -12 X s 1354 426 m -12 X s 1366 445 m -24 X s 1354 463 m -12 X s 1354 481 m -12 X s 1354 499 m -12 X s 1354 517 m -12 X s 1366
 536 m -24 X s 1354 554 m -12 X s 1354 572 m -12 X s 1354 590 m -12 X s 1354 608 m -12 X s 1366 626 m -24 X s 1354 645 m -12 X s 1354 663 m -12 X s 1354 681 m -12 X s 1354 699 m -12 X s 1366 717 m -24 X s 1354 736 m -12 X s 1354 754 m -12 X s 1354
 772 m -12 X s 1354 790 m -12 X s 1366 808 m -24 X s 1354 826 m -12 X s 1354 845 m -12 X s 1354 863 m -12 X s 1354 881 m -12 X s 1366 899 m -24 X s 1366 899 m -24 X s 1354 917 m -12 X s 1354 936 m -12 X s 1354 954 m -12 X s
 gsave  1088 1043 1157 22 C 1300.71 155.479 t 0 r /Helvetica findfont 45.5126 sf 0 0 m (0) show NC gr 
 gsave  1088 1043 1157 22 C 1240.04 246.491 t 0 r /Helvetica findfont 45.5126 sf 0 0 m (0.05) show NC gr 
 gsave  1088 1043 1157 22 C 1270.38 337.503 t 0 r /Helvetica findfont 45.5126 sf 0 0 m (0.1) show NC gr 
 gsave  1088 1043 1157 22 C 1240.04 428.515 t 0 r /Helvetica findfont 45.5126 sf 0 0 m (0.15) show NC gr 
 gsave  1088 1043 1157 22 C 1262.79 519.527 t 0 r /Helvetica findfont 45.5126 sf 0 0 m (0.2) show NC gr 
 gsave  1088 1043 1157 22 C 1240.04 610.539 t 0 r /Helvetica findfont 45.5126 sf 0 0 m (0.25) show NC gr 
 gsave  1088 1043 1157 22 C 1262.79 701.551 t 0 r /Helvetica findfont 45.5126 sf 0 0 m (0.3) show NC gr 
 gsave  1088 1043 1157 22 C 1240.04 792.563 t 0 r /Helvetica findfont 45.5126 sf 0 0 m (0.35) show NC gr 
 gsave  1088 1043 1157 22 C 1262.79 883.575 t 0 r /Helvetica findfont 45.5126 sf 0 0 m (0.4) show NC gr  2180 172 m 788 Y s 2155 172 m 25 X s 2167 190 m 13 X s 2167 208 m 13 X s 2167 226 m 13 X s 2167 245 m 13 X s 2155 263 m 25 X s 2167 281 m 13 X s
 2167 299 m 13 X s 2167 317 m 13 X s 2167 336 m 13 X s 2155 354 m 25 X s 2167 372 m 13 X s 2167 390 m 13 X s 2167 408 m 13 X s 2167 426 m 13 X s 2155 445 m 25 X s 2167 463 m 13 X s 2167 481 m 13 X s 2167 499 m 13 X s 2167 517 m 13 X s 2155 536 m 25 X
 s 2167 554 m 13 X s 2167 572 m 13 X s 2167 590 m 13 X s 2167 608 m 13 X s 2155 626 m 25 X s 2167 645 m 13 X s 2167 663 m 13 X s 2167 681 m 13 X s 2167 699 m 13 X s 2155 717 m 25 X s 2167 736 m 13 X s 2167 754 m 13 X s 2167 772 m 13 X s 2167 790 m 13
 X s 2155 808 m 25 X s 2167 826 m 13 X s 2167 845 m 13 X s 2167 863 m 13 X s 2167 881 m 13 X s 2155 899 m 25 X s 2155 899 m 25 X s 2167 917 m 13 X s 2167 936 m 13 X s 2167 954 m 13 X s 1 0 0 c 6 lw black 3 lw 1 0 0 c 2161 172 m s 2138 172 m -1 X s
 2115 172 m -1 X s 2092 172 m -1 X s 2070 174 m -2 -2 d s 2049 176 m -4 -4 d s 2028 178 m -6 -6 d s 2012 185 m -13 -13 d s 1991 187 m -15 -15 d s 1978 197 m -25 -25 d s 1970 213 m -40 -41 d s 1951 216 m -44 -44 d s 1949 238 m -66 -66 d s 1949 261 m
 -89 -89 d s 1929 264 m -92 -92 d s 1928 286 m -114 -114 d s 1907 289 m -116 -117 d s 1907 312 m -139 -140 d s 1899 327 m -154 -155 d s 1886 337 m -164 -165 d s 1886 360 m -187 -188 d s 1886 383 m -210 -211 d s 1886 407 m -233 -235 d s 1886 430 m
 -257 -258 d s 1883 450 m -277 -278 d s 1865 455 m -282 -283 d s 1865 478 m -305 -306 d s 1865 501 m -328 -329 d s 1865 525 m -272 -274 d s 1583 241 m -11 -11 d s 1562 220 m -11 -11 d s 1533 191 m -3 -3 d s 1526 184 m -12 -12 d s 1858 540 m -265 -266
 d s 1494 175 m -3 -3 d s 1844 550 m -230 -231 d s 1607 312 m -14 -14 d s 1470 174 m -2 -2 d s 1844 573 m -230 -231 d s 1445 172 m s 1826 577 m -191 -191 d s 1617 368 m -3 -3 d s 1422 172 m s 1824 598 m -189 -189 d s 1399 172 m s 1824 622 m -168 -169
 d s 1641 438 m -6 -6 d s 1375 172 m s 1824 645 m -168 -169 d s 1352 172 m s 1824 668 m -42 -42 d s 1761 605 m -84 -84 d s 1658 502 m -2 -2 d s 1824 691 m -42 -42 d s 1761 628 m -63 -63 d s 1696 563 m -19 -19 d s 1824 714 m -42 -42 d s 1761 651 m -63
 -63 d s 1824 737 m -42 -42 d s 1761 674 m -63 -63 d s 1824 761 m -42 -43 d s 1761 697 m -63 -63 d s 1824 784 m -42 -42 d s 1761 721 m -63 -63 d s 1824 807 m -42 -42 d s 1761 744 m -63 -63 d s 1824 830 m -42 -42 d s 1761 767 m -63 -63 d s 1824 853 m
 -42 -42 d s 1761 790 m -63 -63 d s 1824 876 m -42 -42 d s 1761 813 m -42 -42 d s 1698 751 m -1 Y s 1810 886 m -7 -7 d s 1797 872 m -15 -14 d s 1740 815 m -21 -21 d s 1719 818 m s 6 lw 1342 172 m 104 X 1 Y 21 X 1 Y 21 X 1 Y 21 X 9 Y 21 X 7 Y 21 X 29
 Y 21 X 21 Y 21 X 71 Y 21 X 56 Y 21 X 70 Y 21 X 64 Y 21 X 61 Y 21 X 188 Y 21 X 67 Y 21 X -5 Y 21 X -210 Y 21 X 269 Y 21 X 14 Y 21 X -309 Y 20 X -37 Y 21 X -90 Y 21 X -123 Y 21 X -40 Y 21 X -23 Y 21 X -48 Y 21 X -19 Y 21 X -10 Y 21 X -9 Y 21 X -2 Y 21
 X -2 Y 21 X -2 Y 105 X s black 3 lw 1342 172 m 838 X s 1492 196 m -24 Y s 1531 184 m -12 Y s 1569 184 m -12 Y s 1608 184 m -12 Y s 1647 196 m -24 Y s 1685 184 m -12 Y s 1724 184 m -12 Y s 1762 184 m -12 Y s 1801 196 m -24 Y s 1840 184 m -12 Y s 1878
 184 m -12 Y s 1917 184 m -12 Y s 1955 196 m -24 Y s 1994 184 m -12 Y s 2033 184 m -12 Y s 2071 184 m -12 Y s 2110 196 m -24 Y s 1492 196 m -24 Y s 1454 184 m -12 Y s 1415 184 m -12 Y s 1376 184 m -12 Y s 2110 196 m -24 Y s 2148 184 m -12 Y s 1342
 960 m 838 X s 1492 936 m 24 Y s 1531 948 m 12 Y s 1569 948 m 12 Y s 1608 948 m 12 Y s 1647 936 m 24 Y s 1685 948 m 12 Y s 1724 948 m 12 Y s 1762 948 m 12 Y s 1801 936 m 24 Y s 1840 948 m 12 Y s 1878 948 m 12 Y s 1917 948 m 12 Y s 1955 936 m 24 Y s
 1994 948 m 12 Y s 2033 948 m 12 Y s 2071 948 m 12 Y s 2110 936 m 24 Y s 1492 936 m 24 Y s 1454 948 m 12 Y s 1415 948 m 12 Y s 1376 948 m 12 Y s 2110 936 m 24 Y s 2148 948 m 12 Y s 1342 172 m 788 Y s 1366 172 m -24 X s 1354 190 m -12 X s 1354 208 m
 -12 X s 1354 226 m -12 X s 1354 245 m -12 X s 1366 263 m -24 X s 1354 281 m -12 X s 1354 299 m -12 X s 1354 317 m -12 X s 1354 336 m -12 X s 1366 354 m -24 X s 1354 372 m -12 X s 1354 390 m -12 X s 1354 408 m -12 X s 1354 426 m -12 X s 1366 445 m
 -24 X s 1354 463 m -12 X s 1354 481 m -12 X s 1354 499 m -12 X s 1354 517 m -12 X s 1366 536 m -24 X s 1354 554 m -12 X s 1354 572 m -12 X s 1354 590 m -12 X s 1354 608 m -12 X s 1366 626 m -24 X s 1354 645 m -12 X s 1354 663 m -12 X s 1354 681 m
 -12 X s 1354 699 m -12 X s 1366 717 m -24 X s 1354 736 m -12 X s 1354 754 m -12 X s 1354 772 m -12 X s 1354 790 m -12 X s 1366 808 m -24 X s 1354 826 m -12 X s 1354 845 m -12 X s 1354 863 m -12 X s 1354 881 m -12 X s 1366 899 m -24 X s 1366 899 m
 -24 X s 1354 917 m -12 X s 1354 936 m -12 X s 1354 954 m -12 X s 2180 172 m 788 Y s 2155 172 m 25 X s 2167 190 m 13 X s 2167 208 m 13 X s 2167 226 m 13 X s 2167 245 m 13 X s 2155 263 m 25 X s 2167 281 m 13 X s 2167 299 m 13 X s 2167 317 m 13 X s
 2167 336 m 13 X s 2155 354 m 25 X s 2167 372 m 13 X s 2167 390 m 13 X s 2167 408 m 13 X s 2167 426 m 13 X s 2155 445 m 25 X s 2167 463 m 13 X s 2167 481 m 13 X s 2167 499 m 13 X s 2167 517 m 13 X s 2155 536 m 25 X s 2167 554 m 13 X s 2167 572 m 13 X
 s 2167 590 m 13 X s 2167 608 m 13 X s 2155 626 m 25 X s 2167 645 m 13 X s 2167 663 m 13 X s 2167 681 m 13 X s 2167 699 m 13 X s 2155 717 m 25 X s 2167 736 m 13 X s 2167 754 m 13 X s 2167 772 m 13 X s 2167 790 m 13 X s 2155 808 m 25 X s 2167 826 m 13
 X s 2167 845 m 13 X s 2167 863 m 13 X s 2167 881 m 13 X s 2155 899 m 25 X s 2155 899 m 25 X s 2167 917 m 13 X s 2167 936 m 13 X s 2167 954 m 13 X s
 gsave  1088 1043 1157 22 C 2223.27 167.749 t 90 r /Helvetica-Bold findfont 37.9272 sf 0 0 m (U/O\255flow \(S,B\): \(0.0, 0.0\)% / \(0.0, 0.0\)%) show NC gr  0.490196 0.545098 0.615686 c 0.364706 0.419608 0.490196 c 606 60 1167 1000 bf 0.490196
 0.545098 0.615686 c 1167 1000 m 606 X s 1773 1000 m 60 Y s 1773 1060 m -606 X s 1167 1060 m -60 Y s 1 1 1 c black 1 1 1 c
 gsave  1088 1043 1157 22 C 1198.33 1016.3 t 0 r /Helvetica-Bold findfont 45.5126 sf 0 0 m (Input variable: Variable 4) show NC gr 
 gr  gr showpage
end
%%EOF
